%%%%%%%%%%%%%%%%%%%%%%%%%%%%%%%%%%%%%%%%%%%%%%%%%%
%%%%%%%%%%%%%%%%%%%%%%%%%%%%%%%%%%%%%%%%%%%%%%%%%%
%%%%%
%%%%% Information
%%%%%
%%%%%%%%%%%%%%%%%%%%%%%%%%%%%%%%%%%%%%%%%%%%%%%%%%
%%%%%%%%%%%%%%%%%%%%%%%%%%%%%%%%%%%%%%%%%%%%%%%%%%

- Torchlight II

%%%%%%%%%%%%%%%%%%%%%%%%%%%%%%%%%%%%%%%%%%%%%%%%%%
%%%%%%%%%%%%%%%%%%%%%%%%%%%%%%%%%%%%%%%%%%%%%%%%%%
%%%%%
%%%%% Install
%%%%%
%%%%%%%%%%%%%%%%%%%%%%%%%%%%%%%%%%%%%%%%%%%%%%%%%%
%%%%%%%%%%%%%%%%%%%%%%%%%%%%%%%%%%%%%%%%%%%%%%%%%%

%%%%%%%%%%%%%%%%%%%%
%%%%% Install
%%%%%%%%%%%%%%%%%%%%

tar -xzvf ~/'Downloads/Torchlight II/Torchlight2-linux-2015-04-01.sh.tar.gz' -C ~/'Downloads/Torchlight II' && chmod +x ~/'Downloads/Torchlight II/Torchlight2-linux-2015-04-01.sh' && pkexec ~/'Downloads/Torchlight II/Torchlight2-linux-2015-04-01.sh' && sync

%%%%%%%%%%%%%%%%%%%%
%%%%% Finish Up
%%%%%%%%%%%%%%%%%%%%

rm -R ~/'Downloads/Torchlight II' && sync

%%%%%%%%%%%%%%%%%%%%%%%%%%%%%%%%%%%%%%%%%%%%%%%%%%
%%%%%%%%%%%%%%%%%%%%%%%%%%%%%%%%%%%%%%%%%%%%%%%%%%
%%%%%
%%%%% Firewall (TODO)
%%%%%
%%%%%%%%%%%%%%%%%%%%%%%%%%%%%%%%%%%%%%%%%%%%%%%%%%
%%%%%%%%%%%%%%%%%%%%%%%%%%%%%%%%%%%%%%%%%%%%%%%%%%

TCP: 4549
UDP: 4175 4179 4171

%%%%%%%%%%%%%%%%%%%%%%%%%%%%%%%%%%%%%%%%%%%%%%%%%%
%%%%%%%%%%%%%%%%%%%%%%%%%%%%%%%%%%%%%%%%%%%%%%%%%%
%%%%%
%%%%% Quick Commands
%%%%%
%%%%%%%%%%%%%%%%%%%%%%%%%%%%%%%%%%%%%%%%%%%%%%%%%%
%%%%%%%%%%%%%%%%%%%%%%%%%%%%%%%%%%%%%%%%%%%%%%%%%%

%%%%%%%%%%%%%%%%%%%%
%%%%% File Manager
%%%%%%%%%%%%%%%%%%%%

xdg-open ~/'.local/share/Runic Games/Torchlight 2'

%%%%%%%%%%%%%%%%%%%%
%%%%% Save Backup
%%%%%%%%%%%%%%%%%%%%

TODO

%%%%%%%%%%%%%%%%%%%%
%%%%% Normal Execute
%%%%%%%%%%%%%%%%%%%%

cd '/usr/local/games/Torchlight2' && '/usr/local/games/Torchlight2/ModLauncher.bin.x86_64'

%%%%%%%%%%%%%%%%%%%%
%%%%% Performance Graphs
%%%%%%%%%%%%%%%%%%%%

cd '/usr/local/games/Torchlight2' && vblank_mode=0 GALLIUM_HUD='fps,GPU-load,draw-calls;cpu,cpu0+cpu1+cpu2+cpu3,cpu4+cpu5+cpu6+cpu7;VRAM-usage,requested-VRAM,requested-GTT' '/usr/local/games/Torchlight2/ModLauncher.bin.x86_64'

####################################################################################################
####################################################################################################
#####
##### End
#####
####################################################################################################
####################################################################################################